{
  "name": "liger1978-nexus3",
  "version": "0.2.0",
  "author": "liger1978",
  "summary": "Installs and configures Sonatype Nexus Repository 3",
  "license": "Apache-2.0",
  "source": "https://gitlab.com/harbottle/puppet-nexus3",
  "project_page": "https://gitlab.com/harbottle/puppet-nexus3",
  "issues_url": "https://gitlab.com/harbottle/puppet-nexus3/issues",
  "dependencies": [
    {
      "name": "puppetlabs-stdlib",
      "version_requirement": ">=5.0.0 < 7.0.0"
    }
  ],
  "operatingsystem_support": [
    {
      "operatingsystem": "CentOS",
      "operatingsystemrelease": [
        "7",
        "8"
      ]
    },
    {
      "operatingsystem": "OracleLinux",
      "operatingsystemrelease": [
        "7",
        "8"
      ]
    },
    {
      "operatingsystem": "RedHat",
      "operatingsystemrelease": [
        "7",
        "8"
      ]
    },
    {
      "operatingsystem": "Scientific",
      "operatingsystemrelease": [
        "7",
        "8"
      ]
    }
  ],
  "requirements": [
    {
      "name": "puppet",
      "version_requirement": ">= 4.10.0 < 7.0.0"
    }
  ],
  "pdk-version": "1.15.0",
  "template-url": "pdk-default#1.15.0",
  "template-ref": "tags/1.15.0-0-g0bc522e"
}
